<svg version="1.1"
	 id="Layer_1" xmlns:v="http://schemas.microsoft.com/visio/2003/SVGExtensions/" xmlns:ev="http://www.w3.org/2001/xml-events"
	 xmlns="http://www.w3.org/2000/svg" xmlns:xlink="http://www.w3.org/1999/xlink" x="0px" y="0px" width="124.72px" height="59.8px"
	 viewBox="18.242 18.239 124.72 59.8" enable-background="new 18.242 18.239 124.72 59.8" xml:space="preserve">
		<linearGradient id="anim"  fy="0">
      <stop offset="0" stop-color="#148F01">
		</stop>
		<stop offset=".7" stop-color="#46DF04">
		</stop>
    </linearGradient>
		
		<g transform="translate(18.24,-30.8137)">
			<g>
				<path fill="url(#anim)" stroke='rgba(49,163,0,0.7)' d="M123.723,63.223c0.55,0,1,0.45,1,1v31.06c0,0.55-0.45,1-1,1h-9.341c-0.55,0-1,0.45-1,1v10.57
					c0,0.55-0.45,1-1,1H1.002c-0.55,0-1-0.45-1-1v-57.8c0-0.55,0.45-1,1-1h36.27c0.55,0,1,0.45,1,1v0.95c0,0.55,0.45,1,1,1h30.59
					c0.55,0,1,0.45,1,1v0.95c0,0.55,0.45,1,1,1h27.77c0.55,0,1,0.45,1,1v6.27c0,0.55,0.45,1,1,1H123.723z">
        
        </path>
			</g>
		</g>
</svg>
